{
    "applications": {
        "Patient App": {
            "applicationId": "Add application id here",
            "masterKey": "Add master key here"
        }, 
        "_default": {
            "link": "Patient App"
        }
    }, 
    "global": {
        "parseVersion": "1.2.18"
    }
}